[{
  "_id": {
    "$oid": "605b259fd6224c2ec0f17171"
  },
  "id": 1,
  "resumeId": 1,
  "declareId": 1,
  "statusApplication": "waiting",
  "statusInterview": {
    "status": "default",
    "date": "",
    "address": "",
    "prepare": ""
  }
},{
  "_id": {
    "$oid": "605b25bad6224c2ec0f17172"
  },
  "id": 2,
  "resumeId": 2,
  "declareId": 1,
  "statusApplication": "waiting",
  "statusInterview": {
    "status": "default",
    "date": "",
    "address": "",
    "prepare": ""
  }
},{
  "_id": {
    "$oid": "605b29dfac3e802f4cae3431"
  },
  "id": -1,
  "declareId": 1,
  "statusApplication": "waiting",
  "statusInterview": {
    "status": "default",
    "date": "",
    "address": "",
    "prepare": ""
  },
  "__v": 0
}]