[{
  "_id": {
    "$oid": "603cdb546ae2153820a91a1b"
  },
  "id": 1,
  "companyName": "summer company",
  "styleBusiness": "การค้าเชิงพาณิชย์/ขนส่ง",
  "security": "ประกันสังคม,ค่าเบี้ยเลี้ยง",
  "companyCode": "0000000000001",
  "contactName": "นพรดา กาเผือก",
  "detailCompany": "",
  "telCompany": "0945573069",
  "addressCompany": {
    "number": "179/2",
    "lane": "ซอยจันทร์ 31",
    "villageNo": "5",
    "district": "สาทร",
    "subDistrict": "แขวงทุ่งวัดดอน",
    "province": "กรุงเทพ",
    "postalCode": "10120"
  },
  "website": "summer.com",
  "facebook": "summer_company",
  "statusCheckCompany": "passed",
  "username": "summer_company",
  "password": "pp61160145-27",
  "email": "Summer@gmail.com",
  "status": "member"
},{
  "_id": {
    "$oid": "603ce4756ae2153820a91a1c"
  },
  "id": 2,
  "companyName": "summer company222",
  "styleBusiness": "การค้าเชิงพาณิชย์/ขนส่ง",
  "security": "ประกันสังคม,ค่าเบี้ยเลี้ยง",
  "companyCode": "0000000000001",
  "contactName": "นพรดา กาเผือก",
  "detailCompany": "",
  "telCompany": "0945573069",
  "addressCompany": {
    "number": "179/2",
    "lane": "ซอยจันทร์ 31",
    "villageNo": "5",
    "district": "สาทร",
    "subDistrict": "แขวงทุ่งวัดดอน",
    "province": "ชลบุรี",
    "postalCode": "10120"
  },
  "website": "summer.com",
  "facebook": "summer_company",
  "statusCheckCompany": "passed",
  "username": "summer_company",
  "password": "pp61160145-27",
  "email": "Summer@gmail.com",
  "status": "member"
},{
  "_id": {
    "$oid": "6046dfeb500fa22e7822a29b"
  },
  "id": 3,
  "companyName": "summer333",
  "styleBusiness": "การค้าเชิงพาณิชย์/ขนส่ง",
  "security": "ประกันสังคม,ค่าเบี้ยเลี้ยง",
  "companyCode": "0000000000001",
  "contactName": "นพรดา กาเผือก",
  "detailCompany": "",
  "telCompany": "0945573069",
  "addressCompany": {
    "number": "179/2",
    "lane": "ซอยจันทร์ 31",
    "villageNo": "5",
    "district": "สาทร",
    "subDistrict": "แขวงทุ่งวัดดอน",
    "province": "นนทบุรี",
    "postalCode": "10120"
  },
  "website": "summer.com",
  "facebook": "summer_company",
  "statusCheckCompany": "passed",
  "username": "summer_company",
  "password": "pp61160145-27",
  "email": "Summer@gmail.com",
  "status": "member"
},{
  "_id": {
    "$oid": "6046e00e500fa22e7822a29c"
  },
  "id": 4,
  "companyName": "AAAAAA",
  "styleBusiness": "การค้าเชิงพาณิชย์/ขนส่ง",
  "security": "ประกันสังคม,ค่าเบี้ยเลี้ยง",
  "companyCode": "0000000000001",
  "contactName": "นพรดา กาเผือก",
  "detailCompany": "",
  "telCompany": "0945573069",
  "addressCompany": {
    "number": "179/2",
    "lane": "ซอยจันทร์ 31",
    "villageNo": "5",
    "district": "สาทร",
    "subDistrict": "แขวงทุ่งวัดดอน",
    "province": "ขอนแก่น",
    "postalCode": "10120"
  },
  "website": "summer.com",
  "facebook": "summer_company",
  "statusCheckCompany": "passed",
  "username": "summer_company",
  "password": "pp61160145-27",
  "email": "Summer@gmail.com",
  "status": "member"
},{
  "_id": {
    "$oid": "6059993c5d37ac1f700ac53e"
  },
  "companyName": "Burapha University",
  "styleBusiness": "F",
  "security": "this.lastId()this.lastId()",
  "companyCode": "1234567891213",
  "contactName": "this.lastId()",
  "detailCompany": "this.lastId()this.lastId()",
  "telCompany": "0943250522",
  "addressCompany": {
    "number": "7000000",
    "lane": "",
    "villageNo": "",
    "district": "A",
    "subDistrict": "A",
    "province": "B",
    "postalCode": "A"
  },
  "website": "",
  "facebook": "",
  "statusCheckCompany": "",
  "username": "Ployrung Dusarux",
  "password": "123456789",
  "email": "pdsr22@hotmai.com",
  "status": "",
  "__v": 0
}]