[{
  "_id": {
    "$oid": "603bdacc70656b3420cacd8f"
  },
  "id": 1,
  "dateStart": "2021-02-14",
  "dateClose": "2021-02-28",
  "statusDeclare": "success",
  "position": {
    "positionName": "พนักงานบัญชี1",
    "workType": "บัญชี-ธนาคาร",
    "gender": "F",
    "age": "30-35",
    "rate": 2,
    "salary": 17000,
    "detail": "รายงานภาษีซื้อขายยื่นต่อกรมสรรพากรตามกำหนดทุกเดือน",
    "property": [
      {
        "detail": "วุฒิ ปวช. ขึ้นไป"
      },
      {
        "detail": "มีความรับผิดชอบสูง ทัศนคติที่ดี"
      },
      {
        "detail": "มีความรับผิดชอบ ขยัน อดทน ซื่อสัตย์ ตรงต่อเวลา"
      },
      {
        "detail": "มีความกระตือรือร้น และทำงานภายใต้ความกดดันได้ดี"
      }
    ],
    "note": null
  },
  "companyId": 1
},{
  "_id": {
    "$oid": "603bdae170656b3420cacd90"
  },
  "id": 2,
  "dateStart": "2021-02-28",
  "dateClose": "2021-03-102",
  "statusDeclare": "success",
  "position": {
    "positionName": "พนักงานบัญชี2",
    "workType": "บัญชี-ธนาคาร",
    "gender": "A",
    "age": "30-50",
    "rate": 10,
    "salary": 15000,
    "detail": "รายงานภาษีซื้อขายยื่นต่อกรมสรรพากรตามกำหนดทุกเดือน",
    "property": [
      {
        "detail": "วุฒิ ปวช. ขึ้นไป"
      },
      {
        "detail": "มีความรับผิดชอบสูง ทัศนคติที่ดี"
      }
    ],
    "note": null
  },
  "companyId": 1
},{
  "_id": {
    "$oid": "603bdaf270656b3420cacd91"
  },
  "id": 3,
  "dateStart": "2021-02-28",
  "dateClose": "2021-03-10",
  "statusDeclare": "success",
  "position": {
    "positionName": "พนักงานบัญชี3",
    "workType": "บัญชี-ธนาคาร",
    "gender": "A",
    "age": "30-50",
    "rate": 10,
    "salary": 15000,
    "detail": "รายงานภาษีซื้อขายยื่นต่อกรมสรรพากรตามกำหนดทุกเดือน",
    "property": [
      {
        "detail": "วุฒิ ปวช. ขึ้นไป"
      },
      {
        "detail": "มีความรับผิดชอบสูง ทัศนคติที่ดี"
      }
    ],
    "note": null
  },
  "companyId": 1
},{
  "_id": {
    "$oid": "603bdafc70656b3420cacd92"
  },
  "id": 4,
  "dateStart": "2021-02-28",
  "dateClose": "2021-03-10",
  "statusDeclare": "success",
  "position": {
    "positionName": "พนักงานบัญชี4",
    "workType": "บัญชี-ธนาคาร",
    "gender": "A",
    "age": "30-50",
    "rate": 10,
    "salary": 15000,
    "detail": "รายงานภาษีซื้อขายยื่นต่อกรมสรรพากรตามกำหนดทุกเดือน",
    "property": [
      {
        "detail": "วุฒิ ปวช. ขึ้นไป"
      },
      {
        "detail": "มีความรับผิดชอบสูง ทัศนคติที่ดี"
      }
    ],
    "note": null
  },
  "companyId": 2
},{
  "_id": {
    "$oid": "603bdb2c70656b3420cacd93"
  },
  "id": 5,
  "dateStart": "2021-02-28",
  "dateClose": "2021-03-10",
  "statusDeclare": "success",
  "position": {
    "positionName": "พนักงานบัญชี5",
    "workType": "บัญชี-ธนาคาร",
    "gender": "A",
    "age": "30-50",
    "rate": 10,
    "salary": 15000,
    "detail": "รายงานภาษีซื้อขายยื่นต่อกรมสรรพากรตามกำหนดทุกเดือน",
    "property": [
      {
        "detail": "วุฒิ ปวช. ขึ้นไป"
      },
      {
        "detail": "มีความรับผิดชอบสูง ทัศนคติที่ดี"
      }
    ],
    "note": null
  },
  "companyId": 2
},{
  "_id": {
    "$oid": "603bdb5570656b3420cacd94"
  },
  "id": 6,
  "dateStart": "2021-02-28",
  "dateClose": "2021-03-10",
  "statusDeclare": "success",
  "position": {
    "positionName": "พนักงานบัญชี6",
    "workType": "บัญชี-ธนาคาร",
    "gender": "A",
    "age": "30-50",
    "rate": 10,
    "salary": 15000,
    "detail": "รายงานภาษีซื้อขายยื่นต่อกรมสรรพากรตามกำหนดทุกเดือน",
    "property": [
      {
        "detail": "วุฒิ ปวช. ขึ้นไป"
      },
      {
        "detail": "มีความรับผิดชอบสูง ทัศนคติที่ดี"
      }
    ],
    "note": null
  },
  "companyId": 1
},{
  "_id": {
    "$oid": "603bdb6a70656b3420cacd95"
  },
  "dateStart": "2021-03-01",
  "dateClose": "2021-03-10",
  "statusDeclare": "success",
  "position": {
    "positionName": "พนักงานบัญชี7",
    "workType": "บัญชี-ธนาคาร",
    "gender": "A",
    "age": "30-50",
    "rate": 10,
    "salary": 15000,
    "detail": "รายงานภาษีซื้อขายยื่นต่อกรมสรรพากรตามกำหนดทุกเดือน",
    "property": [
      {
        "detail": "วุฒิ ปวช. ขึ้นไป"
      },
      {
        "detail": "มีความรับผิดชอบสูง ทัศนคติที่ดี"
      }
    ],
    "note": null
  },
  "companyId": 1,
  "id": 7
},{
  "_id": {
    "$oid": "603bdb7470656b3420cacd96"
  },
  "id": 8,
  "dateStart": "2021-03-01",
  "dateClose": "2021-03-15",
  "statusDeclare": "success",
  "position": {
    "positionName": "พนักงานบัญชี8",
    "workType": "บัญชี-ธนาคาร",
    "gender": "A",
    "age": "30-50",
    "rate": 10,
    "salary": 15000,
    "detail": "รายงานภาษีซื้อขายยื่นต่อกรมสรรพากรตามกำหนดทุกเดือน",
    "property": [
      {
        "detail": "วุฒิ ปวช. ขึ้นไป"
      },
      {
        "detail": "มีความรับผิดชอบสูง ทัศนคติที่ดี"
      }
    ],
    "note": null
  },
  "companyId": 1
},{
  "_id": {
    "$oid": "6046e11d500fa22e7822a29d"
  },
  "id": 9,
  "dateStart": "2021-03-01",
  "dateClose": "2021-03-15",
  "statusDeclare": "success",
  "position": {
    "positionName": "พนักงานการเงิน",
    "workType": "บัญชี-ธนาคาร",
    "gender": "A",
    "age": "30-50",
    "rate": 10,
    "salary": 15000,
    "detail": "รายงานภาษีซื้อขายยื่นต่อกรมสรรพากรตามกำหนดทุกเดือน",
    "property": [
      {
        "detail": "วุฒิ ปวช. ขึ้นไป"
      },
      {
        "detail": "มีความรับผิดชอบสูง ทัศนคติที่ดี"
      }
    ],
    "note": null
  },
  "companyId": 3
},{
  "_id": {
    "$oid": "6046e135500fa22e7822a29e"
  },
  "id": 10,
  "dateStart": "2021-03-01",
  "dateClose": "2021-03-15",
  "statusDeclare": "success",
  "position": {
    "positionName": "CEO",
    "workType": "บัญชี-ธนาคาร",
    "gender": "A",
    "age": "30-50",
    "rate": 10,
    "salary": 15000,
    "detail": "รายงานภาษีซื้อขายยื่นต่อกรมสรรพากรตามกำหนดทุกเดือน",
    "property": [
      {
        "detail": "วุฒิ ปวช. ขึ้นไป"
      },
      {
        "detail": "มีความรับผิดชอบสูง ทัศนคติที่ดี"
      }
    ],
    "note": null
  },
  "companyId": 4
}]