[{
  "_id": {
    "$oid": "605ac165d7e2213e701887fc"
  },
  "jobrequimentId": 1,
  "resumeId": 1,
  "jobRequirements": "ดูแลการเงิน/การบัญชี",
  "grauateDisciplines": "การบัญชี",
  "TypeJobwant": "งาน office",
  "salary": 15000,
  "workingArea": "กรุงเทพ",
  "dateStart": "12.03.2021"
},{
  "_id": {
    "$oid": "605ac165d7e2213e701887fd"
  },
  "workhistoryId": 2,
  "resumeId": 2,
  "jobRequirements": "โปรแกรมเมอร์",
  "grauateDisciplines": "วิทยาการคอมพิวเตอร์",
  "TypeJobwant": "งาน office",
  "salary": 20000,
  "workingArea": "ชลบุรี",
  "dateStart": "9.09.2021"
}]